name: Bob,
                  surname: Greenname: Bob,
                  surname: Greenname: Bob,
                  surname: Greenname: Bob,
                  surname: Greenname: Bob,
                  surname: Greenname: Bob,
                  surname: Greenname: Bob,
                  surname: Green